{
	"defaultSeverity": "warning",
	"extends": ["tslint:recommended", "tslint:latest", "tslint-config-prettier", "tslint-eslint-rules"],
	"linterOptions": {
		"exclude": ["node_modules/**"]
	},
	"rules": {
		"prettier": true,
		"variable-name": false,
		"interface-name": false,
		"ordered-imports": false,
		"no-constant-condition": true,
		"object-literal-sort-keys": false,
		"no-submodule-imports": false,
		"no-implicit-dependencies": [false, "optional"],
		"no-object-literal-type-assertion": false,
		"trailing-comma": [true, { "multiline": "always", "singleline": "never" }],
		"quotemark": [true, "single"],
		"no-console": false,
		"ter-indent": [
			false,
			"tab",
			{
				"FunctionExpression": {
					"parameters": 1,
					"body": 1
				}
			}
		],
		"ter-max-len": [
			true,
			120,
			{
				"ignoreUrls": true
			}
		]
	},
	"rulesDirectory": ["tslint-plugin-prettier"]
}
