{
    "projectName": "atapia",
    "projectPath": "/Users/alejandrotapia/Sites/atapia",
    "defaultEditor": "code",
    "frontendHandler": {
        "javascript": "/Users/alejandrotapia/.config/yarn/global/node_modules/amplify-frontend-javascript"
    },
    "javascript": {
        "framework": "vue",
        "config": {
            "SourceDir": "src",
            "DistributionDir": "dist",
            "BuildCommand": "npm run-script build",
            "StartCommand": "npm run-script serve"
        }
    },
    "providers": {
        "awscloudformation": "/Users/alejandrotapia/.config/yarn/global/node_modules/amplify-provider-awscloudformation"
    }
}